<?xml version="1.0" encoding="utf-8"?>
<svg viewBox="0 0 500 500" xmlns="http://www.w3.org/2000/svg">
  <g transform="matrix(0.10000000149011612, 0, 0, -0.10000000149011612, -23.14346694946289, 497.1388549804687)" fill="#000000" stroke="none">
    <path d="M2475 4856 c-199 -48 -330 -243 -295 -438 55 -302 418 -426 643 -219 228 211 117 594 -191 660 -64 13 -92 13 -157 -3z m149 -150 c89 -27 148 -92 165 -180 37 -197 -172 -346 -346 -246 -178 102 -148 364 49 425 56 18 75 18 132 1z" style="fill: rgb(10, 130, 181);"/>
    <path d="M1300 4104 c-110 -30 -172 -79 -272 -212 -39 -53 -77 -102 -84 -108 -8 -6 -60 -14 -116 -17 -120 -7 -209 -32 -293 -82 -83 -50 -128 -96 -266 -272 -97 -123 -130 -157 -173 -182 -40 -22 -59 -41 -75 -74 l-21 -43 0 -1360 c0 -1297 1 -1361 19 -1399 10 -22 28 -48 39 -58 54 -48 -58 -46 2497 -47 1621 0 2412 3 2437 10 52 15 94 53 113 103 14 38 15 177 13 1408 l-3 1365 -25 37 c-14 20 -44 47 -68 59 -33 18 -75 64 -177 194 -74 94 -156 191 -183 216 -83 77 -168 112 -307 126 l-70 7 -67 90 c-37 50 -86 108 -111 130 -176 161 -445 166 -632 12 -58 -48 -115 -125 -115 -157 0 -41 30 -73 70 -73 27 0 43 11 97 67 87 92 149 121 258 120 135 0 205 -43 308 -187 90 -127 117 -145 243 -161 107 -14 171 -38 221 -82 18 -16 75 -83 127 -149 l94 -120 -429 -3 c-236 -1 -622 -1 -858 0 l-429 3 114 143 c123 155 134 180 91 220 -13 13 -36 22 -54 22 -37 0 -58 -22 -233 -242 l-125 -158 -241 0 -240 0 -267 334 c-147 184 -296 361 -332 394 -130 123 -310 170 -475 126z m250 -159 c25 -8 68 -32 95 -53 42 -32 221 -245 481 -574 l45 -58 -259 0 -260 0 -128 221 c-130 223 -151 249 -204 249 -53 0 -74 -26 -203 -249 l-129 -221 -319 0 c-175 0 -319 3 -319 6 0 14 176 227 210 254 81 64 200 99 338 100 55 0 113 19 146 48 10 9 49 58 86 107 88 117 127 154 192 177 61 22 154 19 228 -7z m-120 -614 c55 -95 100 -177 100 -182 0 -4 -9 -11 -21 -14 -26 -8 -59 -62 -59 -95 0 -14 43 -99 95 -189 52 -90 95 -165 95 -167 0 -1 -13 -16 -30 -32 -24 -25 -30 -39 -30 -74 1 -36 17 -71 100 -213 l99 -170 -226 -5 -225 -5 -25 -29 c-29 -35 -25 -69 13 -103 25 -23 29 -23 302 -23 255 0 279 2 308 19 39 24 59 76 44 115 -6 16 -53 101 -105 191 -52 90 -95 168 -95 172 0 5 9 14 21 21 11 7 27 29 35 48 14 33 13 39 -9 87 -14 29 -59 110 -100 182 l-76 129 30 13 c20 8 36 26 47 53 l17 40 290 0 290 -1 405 -335 c223 -184 406 -343 408 -353 2 -10 -3 -22 -10 -28 -7 -5 -287 -137 -623 -292 -363 -169 -631 -299 -661 -321 -86 -64 -152 -169 -179 -282 -42 -177 11 -354 142 -485 73 -72 111 -86 152 -56 18 14 27 31 29 56 3 33 -2 41 -56 92 -131 123 -164 279 -91 432 54 112 62 117 704 414 726 337 680 314 711 355 50 66 52 156 3 218 -12 15 -172 152 -356 304 l-336 277 158 3 158 3 496 -307 c273 -169 502 -312 509 -319 11 -10 -16 -62 -140 -275 l-153 -264 -319 -177 c-175 -98 -331 -190 -346 -204 -89 -85 -90 -243 -3 -337 14 -14 312 -201 662 -415 l638 -388 -665 -3 -664 -2 -47 33 c-376 270 -624 437 -648 437 -38 0 -73 -36 -73 -76 0 -40 -3 -38 277 -234 122 -85 222 -158 222 -162 1 -5 -550 -8 -1223 -8 -1018 0 -1225 2 -1235 14 -8 10 -10 370 -9 1347 l3 1334 375 3 375 2 17 -40 c11 -27 27 -45 47 -53 l30 -13 -76 -129 c-41 -72 -86 -153 -100 -182 -22 -48 -23 -54 -9 -87 8 -19 24 -41 35 -48 12 -7 21 -16 21 -21 0 -4 -43 -82 -95 -172 -115 -199 -119 -207 -104 -252 20 -62 53 -73 216 -73 133 0 143 1 167 23 38 33 42 68 13 103 -23 27 -31 29 -116 34 l-90 5 99 173 c79 135 100 180 100 210 0 37 -20 72 -51 88 -15 8 -4 31 77 169 51 88 96 174 99 191 8 39 -16 90 -50 106 -14 6 -25 15 -25 19 0 6 153 276 193 340 6 10 15 18 19 17 4 -2 53 -81 108 -177z m3538 -1570 c1 -977 -1 -1337 -9 -1347 -9 -11 -56 -14 -217 -14 l-205 0 -211 128 c-116 71 -449 274 -741 451 -291 177 -541 333 -555 346 -33 33 -33 87 1 119 34 34 640 368 656 362 8 -3 -23 -65 -94 -188 -134 -231 -137 -240 -122 -285 6 -20 24 -42 43 -54 29 -18 56 -19 539 -19 543 0 551 1 577 49 27 51 13 90 -104 291 -63 107 -112 198 -109 203 2 4 12 7 22 7 25 0 69 43 77 76 4 15 2 40 -4 56 -5 15 -92 170 -193 344 -185 322 -209 354 -264 354 -11 0 -34 -9 -52 -20 l-32 -19 -373 230 c-205 127 -386 240 -403 250 -29 18 -14 19 870 16 l900 -2 3 -1334z m-774 431 l133 -229 -32 -12 c-50 -18 -70 -46 -69 -100 0 -40 14 -70 112 -238 62 -105 112 -194 112 -197 0 -3 -180 -6 -399 -6 l-399 0 119 207 c65 114 119 218 119 231 0 40 -29 83 -69 101 l-39 17 135 232 c75 128 138 231 140 228 3 -2 64 -108 137 -234z" style="fill: rgb(56, 189, 248);"/>
    <path d="M354 2667 c-35 -31 -38 -82 -5 -109 19 -15 41 -18 127 -18 91 0 107 3 124 20 30 30 27 83 -6 109 -23 18 -41 21 -120 21 -83 0 -96 -2 -120 -23z" style="fill: rgb(12, 99, 137);"/>
    <path d="M2216 2629 c-33 -26 -36 -79 -6 -109 17 -17 33 -20 124 -20 86 0 108 3 127 18 33 27 30 78 -5 109 -24 21 -37 23 -120 23 -79 0 -97 -3 -120 -21z" style="fill: rgb(12, 99, 137);"/>
    <path d="M927 1868 c-14 -13 -104 -161 -201 -329 -196 -341 -201 -356 -147 -410 16 -16 37 -29 45 -29 9 0 16 -5 16 -12 0 -6 -47 -93 -105 -193 -119 -207 -127 -235 -76 -286 l29 -29 501 0 501 0 31 28 c56 50 48 79 -75 291 -58 100 -106 184 -106 186 0 2 15 11 34 20 39 19 71 75 62 110 -10 39 -354 629 -382 653 -17 15 -38 22 -64 22 -26 0 -47 -7 -63 -22z m192 -401 c67 -115 121 -210 121 -212 0 -2 -15 -11 -34 -20 -18 -9 -39 -27 -47 -41 -26 -50 -15 -83 95 -273 59 -101 105 -185 103 -187 -2 -3 -169 -3 -370 -2 l-366 3 104 180 c58 99 107 194 111 211 8 44 -19 92 -62 110 -19 8 -33 18 -31 22 213 370 247 426 253 420 1 -2 57 -97 123 -211z" style="fill: rgb(22, 175, 241);"/>
    <path d="M363 1860 c-46 -19 -57 -83 -20 -118 20 -19 35 -22 103 -22 71 0 83 3 102 23 29 31 28 72 -3 102 -21 22 -33 25 -92 24 -37 0 -78 -4 -90 -9z" style="fill: rgb(12, 99, 137);"/>
    <path d="M2230 1609 c-114 -78 -143 -117 -148 -203 -3 -49 0 -71 17 -103 44 -86 123 -119 169 -70 31 33 28 71 -8 109 -47 49 -41 71 37 126 37 26 77 57 90 69 43 41 21 114 -38 128 -21 5 -44 -6 -119 -56z" style="fill: rgb(113, 211, 253);"/>
    <path d="M2655 985 c-14 -13 -25 -35 -25 -49 0 -46 -6 -41 509 -373 62 -40 124 -73 138 -73 33 0 73 42 73 78 0 17 -9 37 -22 50 -21 18 -285 191 -517 339 -47 29 -96 53 -108 53 -13 0 -35 -11 -48 -25z" style="fill: rgb(133, 210, 242);"/>
    <path d="M4274 2917 c-35 -31 -38 -82 -5 -109 19 -15 41 -18 127 -18 91 0 107 3 124 20 30 30 27 83 -6 109 -23 18 -41 21 -120 21 -83 0 -96 -2 -120 -23z"/>
    <path d="M4225 955 c-32 -31 -33 -74 -2 -103 21 -20 34 -22 129 -22 103 0 107 1 127 26 28 35 26 69 -4 99 -22 23 -31 25 -125 25 -94 0 -103 -2 -125 -25z"/>
  </g>
</svg>