<?xml version="1.0" encoding="UTF-8" standalone="no"?>
<!-- Created with Inkscape (http://www.inkscape.org/) -->

<svg
   version="1.1"
   id="svg2"
   width="512"
   height="512"
   viewBox="0 0 512 512"
   sodipodi:docname="bell-hotel.png"
   inkscape:version="1.1.2 (0a00cf5339, 2022-02-04)"
   xmlns:inkscape="http://www.inkscape.org/namespaces/inkscape"
   xmlns:sodipodi="http://sodipodi.sourceforge.net/DTD/sodipodi-0.dtd"
   xmlns="http://www.w3.org/2000/svg"
   xmlns:svg="http://www.w3.org/2000/svg">
  <defs
     id="defs6" />
  <sodipodi:namedview
     id="namedview4"
     pagecolor="#505050"
     bordercolor="#eeeeee"
     borderopacity="1"
     inkscape:pageshadow="0"
     inkscape:pageopacity="0"
     inkscape:pagecheckerboard="0"
     showgrid="false"
     inkscape:zoom="0.99298784"
     inkscape:cx="126.88977"
     inkscape:cy="342.9045"
     inkscape:window-width="1846"
     inkscape:window-height="1016"
     inkscape:window-x="74"
     inkscape:window-y="27"
     inkscape:window-maximized="1"
     inkscape:current-layer="g8" />
  <g
     inkscape:groupmode="layer"
     inkscape:label="Image"
     id="g8">
    <path
       style="fill:#ffcc00"
       d="m 31.567063,511.8078 c -9.30579,-2.93844 -15.18627,-7.69168 -19.56765,-15.81668 -3.0997702,-5.74833 -3.3948502,-7.03436 -3.3948502,-14.79554 0,-7.76879 0.29339,-9.0441 3.4105402,-14.82498 3.90135,-7.23521 8.11515,-11.09287 15.70264,-14.37548 3.25361,-1.40763 5.32181,-2.92619 5.33225,-3.91518 0.009,-0.88861 1.6135,-4.80673 3.5647,-8.70694 3.67628,-7.34846 10.03035,-14.00826 16.20237,-16.98197 l 3.25,-1.56587 v -11.07092 c 0,-91.95968 62.161337,-172.18293 150.490967,-194.21837 l 10.4123,-2.59754 2.04836,-6.06555 c 2.44814,-7.24934 2.47871,-7.6772 0.54837,-7.6772 -2.52557,0 -8.97618,-7.30828 -10.274,-11.64002 -1.54035,-5.14124 -1.54035,-7.57872 0,-12.71996 1.67259,-5.5826 7.28477,-10.96314 13.14714,-12.6045 3.9151,-1.09616 5.07439,-1.99242 6.70082,-5.1805 1.9615,-3.84485 1.96131,-3.86557 -0.074,-7.85502 l -2.04065,-4 h -7.02513 c -6.22571,0 -7.31993,-0.2948 -9.61581,-2.59068 -2.42556,-2.42556 -2.55145,-3.01513 -1.9752,-9.25 1.29547,-14.01613 10.02385,-26.02536 23.65683,-32.54896 l 6.5,-3.110356 h 17.55186 17.55187 l 7.63281,3.772336 c 11.16274,5.51693 18.16318,14.09496 21.40411,26.22766 2.07952,7.78489 1.75875,12.1915 -1.0952,15.04545 -2.1402,2.14021 -3.35422,2.45455 -9.47967,2.45455 h -7.02513 l -2.04065,4 c -2.03527,3.98945 -2.03546,4.01017 -0.074,7.85502 1.62643,3.18808 2.78572,4.08434 6.70082,5.1805 5.86237,1.64136 11.47455,7.0219 13.14714,12.6045 1.54035,5.14124 1.54035,7.57872 0,12.71996 -1.29778,4.33174 -7.74839,11.64002 -10.27396,11.64002 -1.93149,0 -1.90057,0.42551 0.56043,7.71292 l 2.06043,6.10126 7.18957,1.72524 c 62.98337,15.11372 115.25669,60.34617 139.21142,120.46058 8.82848,22.15506 13.27541,43.82089 14.17862,69.07952 l 0.59286,16.57953 4.42337,2.34659 c 7.45737,3.95612 15.84427,15.08935 17.69882,23.49436 0.54427,2.46666 1.67217,3.43933 6.3444,5.47118 20.231,8.79806 25.33371,35.86853 9.70675,51.49549 -2.08654,2.08653 -6.30762,4.97262 -9.38019,6.41351 l -5.58648,2.61982 -222,0.18764 C 81.101733,513.03238 34.746623,512.81182 31.567063,511.8078 Z M 480.682,494.63379 c 5.24753,-3.91793 6.88506,-7.11405 6.88506,-13.43821 0,-6.32416 -1.63753,-9.52028 -6.88506,-13.43821 l -2.76148,-2.06179 -219.67673,-0.29339 c -152.04481,-0.20306 -220.802687,0.0316 -223.333977,0.76235 -10.15754,2.93219 -14.08615,16.8346 -7.10254,25.13415 5.26054,6.25179 -11.36038,5.84529 229.436517,5.61132 l 220.67673,-0.21443 z m -18.61494,-47.00343 c 0,-2.72367 -10.14319,-11.89713 -14.61602,-13.21866 -3.15334,-0.93169 -40.04883,-1.21612 -157.75,-1.21612 H 136.06706 v -8 -8 h 152 152 v -8.53941 c 0,-43.4922 -16.78161,-87.3139 -46.51359,-121.46059 -38.13134,-43.79321 -98.91995,-67.34445 -157.27582,-60.93314 -78.33321,8.60614 -142.679477,65.87332 -159.566567,142.01177 -3.02423,13.63527 -4.64402,27.54574 -4.64402,39.88196 v 9.03941 h 8 8 v 8 8 h -9.63398 c -5.29869,0 -11.48619,0.54725 -13.75,1.21612 -4.47283,1.32153 -14.61602,10.49499 -14.61602,13.21866 0,1.41523 19.74074,1.56522 205.999997,1.56522 186.25926,0 206,-0.14999 206,-1.56522 z m -358,-22.43478 v -8 h 8 8 v 8 8 h -8 -8 z M 387.41522,324.85529 c -6.3785,-11.17829 -15.15347,-22.21513 -25.98945,-32.68859 -19.08076,-18.4424 -39.01619,-29.95677 -64.79774,-37.42607 -4.91646,-1.42437 -9.125,-2.77575 -9.35231,-3.00306 -0.22731,-0.22731 0.15482,-3.59225 0.84918,-7.47764 1.45542,-8.14407 1.0894,-7.99038 11.96226,-5.0229 37.55507,10.24973 71.78198,34.44222 93.81071,66.30791 5.30885,7.67953 12.44702,19.73512 11.94469,20.17329 -0.85553,0.74626 -12.84599,6.47209 -13.49698,6.44525 -0.42819,-0.0177 -2.64685,-3.30635 -4.93036,-7.30819 z m -125.09816,-75.40011 -6.25,-0.35503 v -7.95229 -7.95228 l 4.75,0.011 c 2.6125,0.006 6.40062,0.28394 8.41805,0.61754 4.0548,0.67049 3.81607,-0.53512 2.30128,11.62145 -0.35503,2.84924 -1.06756,4.6729 -1.7806,4.55732 -0.6538,-0.10597 -4.00123,-0.35245 -7.43873,-0.54772 z m 14.10451,-41.7596 c -2.20096,-7.08192 -0.3787,-6.5 -20.35451,-6.5 -17.80194,0 -18.06105,0.0309 -18.89122,2.25 -2.56596,6.85906 -4.40691,6.25 18.89122,6.25 20.51661,0 20.96247,-0.0438 20.35451,-2 z m 11.03185,-24.75 c 0.80454,-1.276 0.80455,-2.224 1e-5,-3.5 -1.0042,-1.59268 -3.77979,-1.77383 -30.87425,-2.01508 -30.63391,-0.27276 -32.51212,-0.0597 -32.51212,3.68752 0,3.95952 1.31833,4.11605 32.35581,3.8419 27.24381,-0.24064 30.02607,-0.42125 31.03055,-2.01434 z m -21.86068,-24.70034 c -0.83912,-1.62269 -1.52568,-3.89503 -1.52568,-5.04966 0,-1.15463 0.68656,-3.42697 1.52568,-5.04966 l 1.52568,-2.95034 h -11.0095 -11.0095 l 1.70147,3.56803 c 1.57335,3.29935 1.58147,3.90177 0.10775,8 l -1.59372,4.43197 h 10.90175 10.90175 z m 20.47432,-30.61488 c 0,-2.72367 -10.14319,-11.89713 -14.61602,-13.21866 -5.3201,-1.57188 -25.44786,-1.57188 -30.76796,0 -4.47283,1.32153 -14.61602,10.49499 -14.61602,13.21866 0,1.38551 3.44444,1.56522 30,1.56522 26.55556,0 30,-0.17971 30,-1.56522 z m -97.5,-46.954765 c -17.07586,-5.775895 -25.55469,-9.129046 -26.75,-10.578905 -3.52115,-4.271003 -2.41931,-6.659333 11.87465,-25.739152 20.19051,-26.950655 19.05619,-27.222137 37.27561,8.921277 13.8064,27.388901 14.21712,28.640683 10.88989,33.189602 -2.78196,3.80344 -7.18474,3.037312 -33.29015,-5.792822 z m 7,-22.480011 c -2.48604,-4.95 -4.71425,-9 -4.95159,-9 -0.23733,0 -2.48078,2.663178 -4.98545,5.918173 l -4.55392,5.918172 8.74548,3.00288 c 4.81001,1.651584 9.0875,3.038407 9.50552,3.081828 0.41802,0.04342 -1.274,-3.971053 -3.76004,-8.921053 z m 94.95455,28.545455 c -1.478,-1.477999 -2.43527,-3.566724 -2.40609,-5.25 0.0267,-1.5375 5.98915,-14.495455 13.25,-28.795455 17.94921,-35.350373 16.98996,-35.114797 36.59776,-8.9878 7.24048,9.647787 13.42136,18.825722 13.7353,20.395411 1.23667,6.183344 -0.59335,7.246593 -28.45927,16.534973 -14.12013,4.706579 -26.70576,8.557416 -27.96806,8.557416 -1.26231,0 -3.39964,-1.104545 -4.74964,-2.454545 z m 32.29167,-22.979664 8.24623,-2.72752 -4.55467,-5.919135 c -2.50507,-3.255525 -4.74886,-5.919136 -4.98619,-5.919136 -0.23734,0 -2.49658,4.111785 -5.02055,9.137301 -2.52396,5.025516 -3.99098,8.916511 -3.26003,8.646656 0.73094,-0.269855 5.03979,-1.71803 9.57521,-3.218166 z m -71.5884,15.684209 c -2.2242,-1.886064 -27.15782,-67.188295 -27.15782,-71.1275162 0,-1.2198898 1.19071,-3.3214945 2.64602,-4.6702326 l 2.64603,-2.4522511 h 26.89943 26.89943 l 2.45454,2.4545455 c 1.35,1.35 2.45455,3.4516047 2.45455,4.6702327 0,3.9376287 -24.93441,69.2398307 -27.15782,71.1252217 -1.13506,0.9625 -3.31404,1.75 -4.84218,1.75 -1.52814,0 -3.70712,-0.7875 -4.84218,-1.75 z m 11.10388,-45.582943 c 3.15607,-8.433119 5.7383,-15.633119 5.7383,-16 0,-0.366882 -5.4,-0.667057 -12,-0.667057 -6.6,0 -12,0.300175 -12,0.667057 0,1.330067 11.49061,31.332943 12,31.332943 0.28787,0 3.10564,-6.899825 6.2617,-15.332943 z"
       id="path863" />
  </g>
</svg>
