<?xml version="1.0" encoding="UTF-8" standalone="no"?>
<!-- Created with Inkscape (http://www.inkscape.org/) -->

<svg
   version="1.1"
   id="svg9057"
   width="682.66669"
   height="682.66669"
   viewBox="0 0 682.66669 682.66669"
   sodipodi:docname="french-fries.svg"
   inkscape:version="1.1.2 (0a00cf5339, 2022-02-04)"
   inkscape:export-filename="/home/psk/Dev/WEB/kid/src/assets/apps/french-fries.png"
   inkscape:export-xdpi="42.189999"
   inkscape:export-ydpi="42.189999"
   xmlns:inkscape="http://www.inkscape.org/namespaces/inkscape"
   xmlns:sodipodi="http://sodipodi.sourceforge.net/DTD/sodipodi-0.dtd"
   xmlns="http://www.w3.org/2000/svg"
   xmlns:svg="http://www.w3.org/2000/svg">
  <sodipodi:namedview
     id="namedview77"
     pagecolor="#505050"
     bordercolor="#eeeeee"
     borderopacity="1"
     inkscape:pageshadow="0"
     inkscape:pageopacity="0"
     inkscape:pagecheckerboard="0"
     showgrid="false"
     inkscape:zoom="0.52661131"
     inkscape:cx="-32.281874"
     inkscape:cy="333.26287"
     inkscape:window-width="1920"
     inkscape:window-height="1016"
     inkscape:window-x="0"
     inkscape:window-y="27"
     inkscape:window-maximized="1"
     inkscape:current-layer="g9067" />
  <defs
     id="defs9061">
    <clipPath
       clipPathUnits="userSpaceOnUse"
       id="clipPath9071">
      <path
         d="M 0,512 H 512 V 0 H 0 Z"
         id="path9069" />
    </clipPath>
  </defs>
  <g
     id="g9065"
     transform="matrix(1.3333333,0,0,-1.3333333,0,682.66667)">
    <g
       id="g9067"
       clip-path="url(#clipPath9071)">
      <g
         id="g9073"
         transform="translate(269.8057,504.5)">
        <path
           d="m 0,0 h -27.611 c -11.091,0 -20.081,-8.991 -20.081,-20.081 v -20.181 l -6.693,-139.906 2.611,-3.185 c 18.978,-23.153 54.873,-21.59 71.766,3.125 l 0.088,4.953 V -20.081 C 20.08,-8.991 11.09,0 0,0"
           style="fill:#fecd5e;fill-opacity:1;fill-rule:nonzero;stroke:none"
           id="path9075" />
      </g>
      <g
         id="g9077"
         transform="translate(288.7988,267.8325)">
        <path
           d="m 0,0 0.999,56.44 c -16.96,-0.005 -66.05,-0.015 -74.377,0.06 L -76.076,0.081 C -73.411,-0.073 -77.182,0.031 0,0"
           style="fill:#feb859;fill-opacity:1;fill-rule:nonzero;stroke:none"
           id="path9079" />
      </g>
      <g
         id="g9081"
         transform="translate(155.8467,374.4868)">
        <path
           d="m 0,0 17.319,19.972 v 67.369 c 0,11.091 -8.99,20.081 -20.08,20.081 h -27.611 c -11.091,0 -20.081,-8.99 -20.081,-20.081 V 21.049 C -41.355,2.308 -19.72,-6.719 0,0"
           style="fill:#fecd5e;fill-opacity:1;fill-rule:nonzero;stroke:none"
           id="path9083" />
      </g>
      <g
         id="g9085"
         transform="translate(109.7715,361.4243)">
        <path
           d="M 0,0 H 14.77 C 31.878,0 46.979,-9.448 54.801,-23.666 L 63.395,2.119 V 33.035 C 50.871,45.548 33.595,53.214 14.677,53.214 2.619,53.166 -0.708,53.316 -4.378,53.08 V -0.211 C -2.942,-0.07 -1.477,0 0,0"
           style="fill:#feb859;fill-opacity:1;fill-rule:nonzero;stroke:none"
           id="path9087" />
      </g>
      <g
         id="g9089"
         transform="translate(189.2314,324.3042)">
        <path
           d="m 0,0 c 7.533,-1.944 15.817,-2.191 22.324,-2.527 2.036,-0.106 4.067,0.223 5.967,0.961 L 32.329,0 67.953,107.071 c 3.504,10.523 -2.189,21.899 -12.711,25.403 -2.679,0.893 9.702,-3.236 -26.195,8.735 C 18.524,144.713 7.158,139.03 3.654,128.508 L -15.867,69.954 c -6.798,-20.502 -6.477,-39.922 -3.9,-50.19 C -17.328,10.046 -9.701,2.503 0,0"
           style="fill:#fbed6b;fill-opacity:1;fill-rule:nonzero;stroke:none"
           id="path9091" />
      </g>
      <g
         id="g9093"
         transform="translate(153.5479,334.4907)">
        <path
           d="m 0,0 c 2.761,-5.02 4.618,-10.623 5.331,-16.617 l 1.175,-9.799 c 2.64,-22.109 20.753,-38.957 42.731,-40.202 l 18.776,56.431 c -3.321,0.009 -5.71,0.021 -6.761,0.035 C 50.469,-9.392 41.75,-1.085 40.459,9.722 L 39.286,19.5 C 37.415,35.241 30.297,49.208 19.816,59.767 -10.416,-31.412 4.105,12.383 0,0"
           style="fill:#fecd5e;fill-opacity:1;fill-rule:nonzero;stroke:none"
           id="path9095" />
      </g>
      <g
         id="g9097"
         transform="translate(414.1357,413.5933)">
        <path
           d="M 0,0 V 48.235 C 0,59.33 -8.986,68.316 -20.08,68.316 h -27.611 c -11.095,0 -20.081,-8.986 -20.081,-20.081 v -60.836 c 9.538,-9.442 24.844,-11.013 40.161,-11.013 C -15.188,-23.815 -2.51,-15.521 0,0"
           style="fill:#fecd5e;fill-opacity:1;fill-rule:nonzero;stroke:none"
           id="path9099" />
      </g>
      <g
         id="g9101"
         transform="translate(380.7422,329.7368)">
        <path
           d="m 0,0 v 0 c 18.443,0 33.394,14.951 33.394,33.394 v 50.462 c -3.867,0.676 -7.841,1.045 -11.909,1.045 H 6.716 c -15.317,0 -29.574,-5.05 -41.095,-13.645 V 39.81 l 1.215,-10.32 C -31.185,12.673 -16.933,0 0,0"
           style="fill:#feb859;fill-opacity:1;fill-rule:nonzero;stroke:none"
           id="path9103" />
      </g>
      <g
         id="g9105"
         transform="translate(380.7422,414.3071)">
        <path
           d="m 0,0 c -2.392,3.373 -5.823,6.051 -10.051,7.45 -2.796,0.923 8.342,-2.754 -26.216,8.655 -10.532,3.484 -21.887,-2.229 -25.372,-12.762 l -29.217,-88.426 -1.543,-4.952 C -48.938,-128.855 -32.538,-30.402 0,0"
           style="fill:#fbed6b;fill-opacity:1;fill-rule:nonzero;stroke:none"
           id="path9107" />
      </g>
      <g
         id="g9109"
         transform="translate(350.7139,280.0972)">
        <path
           d="m 0,0 c 2.511,21.064 -0.816,55.091 19.746,57.662 l 12.992,58.626 c 2.086,6.305 0.858,12.892 -2.71,17.922 -31.807,-3.101 -57.724,-27.987 -61.575,-60.295 l -1.176,-9.813 c -1.354,-11.359 -10.998,-19.924 -22.431,-19.924 -0.028,0 -2.769,-0.002 -7.217,-0.003 L -76.14,0 Z"
           style="fill:#fecd5e;fill-opacity:1;fill-rule:nonzero;stroke:none"
           id="path9111" />
      </g>
      <g
         id="g9113"
         transform="translate(222.1133,464.2378)">
        <path
           d="m 0,0 v 20.182 c 0,11.094 8.986,20.08 20.081,20.08 h 27.611 c 11.094,0 20.08,-8.986 20.08,-20.08 v -155.195 -28.043"
           style="fill:none;stroke:#000000;stroke-width:15;stroke-linecap:round;stroke-linejoin:round;stroke-miterlimit:10;stroke-dasharray:none;stroke-opacity:1"
           id="path9115" />
      </g>
      <g
         id="g9117"
         transform="translate(164.5723,367.8804)">
        <path
           d="M 0,0 C 2.35,7.049 25.466,76.389 28.313,84.932 31.817,95.454 43.184,101.137 53.706,97.633 89.604,85.662 77.223,89.791 79.901,88.897 90.423,85.394 96.116,74.018 92.612,63.495 L 49.237,-66.618"
           style="fill:none;stroke:#000000;stroke-width:15;stroke-linecap:round;stroke-linejoin:round;stroke-miterlimit:10;stroke-dasharray:none;stroke-opacity:1"
           id="path9119" />
      </g>
      <g
         id="g9121"
         transform="translate(129.9727,481.9092)">
        <path
           d="m 0,0 h 23.113 c 11.095,0 20.08,-8.986 20.08,-20.081 v -68.164"
           style="fill:none;stroke:#000000;stroke-width:15;stroke-linecap:round;stroke-linejoin:round;stroke-miterlimit:10;stroke-dasharray:none;stroke-opacity:1"
           id="path9123" />
      </g>
      <g
         id="g9125"
         transform="translate(105.3936,391.3345)">
        <path
           d="M 0,0 V 70.333"
           style="fill:none;stroke:#000000;stroke-width:15;stroke-linecap:round;stroke-linejoin:round;stroke-miterlimit:10;stroke-dasharray:none;stroke-opacity:1"
           id="path9127" />
      </g>
      <g
         id="g9129"
         transform="translate(289.8857,329.2246)">
        <path
           d="m 0,0 29.218,88.426 c 3.484,10.532 14.84,16.245 25.372,12.762 C 89.147,89.778 78.01,93.456 80.806,92.532 91.338,89.048 97.051,77.693 93.566,67.16 L 91.85,61.959"
           style="fill:none;stroke:#000000;stroke-width:15;stroke-linecap:round;stroke-linejoin:round;stroke-miterlimit:10;stroke-dasharray:none;stroke-opacity:1"
           id="path9131" />
      </g>
      <g
         id="g9133"
         transform="translate(346.3633,429.7896)">
        <path
           d="M 0,0 V 32.039 C 0,43.133 8.986,52.12 20.081,52.12 h 27.611 c 11.094,0 20.08,-8.987 20.08,-20.081 v -71.85"
           style="fill:none;stroke:#000000;stroke-width:15;stroke-linecap:round;stroke-linejoin:round;stroke-miterlimit:10;stroke-dasharray:none;stroke-opacity:1"
           id="path9135" />
      </g>
      <g
         id="g9137"
         transform="translate(402.2285,391.5454)">
        <path
           d="m 0,0 h -14.77 c -23.061,0 -42.614,-17.216 -45.363,-40.282 l -1.174,-9.8 c -1.681,-14.093 -9.662,-26.04 -20.916,-33.181 -7.098,-4.504 -15.495,-7.101 -24.447,-7.101 -0.11,0 -79.691,-0.037 -81.749,0.081 -6.682,0.378 -13.003,2.206 -18.644,5.179 l -7.697,-17.2 c -20.132,-44.986 1.202,-97.686 46.958,-115.999 l 6.97,-2.789 154.772,2.212 40.879,38.153 7.801,95.626 2.913,35.702 C 47.706,-22.798 26.689,0 0,0"
           style="fill:#edebfe;fill-opacity:1;fill-rule:nonzero;stroke:none"
           id="path9139" />
      </g>
      <g
         id="g9141"
         transform="translate(195.165,306.4414)">
        <path
           d="m 0,0 c -12.913,6.804 -22.249,19.635 -24.087,35.022 l -1.175,9.8 c -2.707,22.756 -21.998,40.282 -45.362,40.282 -14.274,-0.057 -15.574,0.139 -19.147,-0.211 -24.569,-2.329 -43.205,-24.057 -41.156,-49.188 l 10.713,-131.328 40.149,-42.17 126.296,1.805 -38.43,40.365 z"
           style="fill:#d8dbf6;fill-opacity:1;fill-rule:nonzero;stroke:none"
           id="path9143" />
      </g>
      <g
         id="g9145"
         transform="translate(402.2549,132.5029)">
        <path
           d="m 0,0 h -192.775 c 0,0 -92.037,-125.003 71.048,-125.003 h 78.958 c 34.449,0 63.134,26.437 65.936,60.774 l 2.409,29.589 z"
           style="fill:#edebfe;fill-opacity:1;fill-rule:nonzero;stroke:none"
           id="path9147" />
      </g>
      <g
         id="g9149"
         transform="translate(214.5928,68.2744)">
        <path
           d="m 0,0 -2.41,29.589 24.238,34.64 H -106.188 L -130.425,29.589 -128.015,0 c 2.801,-34.338 31.487,-60.774 65.936,-60.774 H 65.936 C 31.486,-60.774 2.801,-34.338 0,0"
           style="fill:#d8dbf6;fill-opacity:1;fill-rule:nonzero;stroke:none"
           id="path9151" />
      </g>
      <g
         id="g9153"
         transform="translate(143.4453,210.8184)"
         style="fill:#ff5555">
        <path
           d="m 0,0 h -68.494 l 9.217,-112.955 H 0 C 88.708,-118.226 70.636,2.259 0,0"
           style="fill:#ff5555;fill-opacity:1;fill-rule:nonzero;stroke:none"
           id="path9155" />
      </g>
      <g
         id="g9157"
         transform="translate(383.6143,210.8184)"
         style="fill:#ff5555">
        <path
           d="M 0,0 C -79.17,3.263 -83.437,-110.193 -0.001,-112.955 H 44.217 L 53.434,0 Z"
           style="fill:#ff5555;fill-opacity:1;fill-rule:nonzero;stroke:none"
           id="path9159" />
      </g>
      <g
         id="g9161"
         transform="translate(383.6143,210.8184)"
         style="fill:#d40000">
        <path
           d="m 0,0 h -240.169 c -10.476,-17.262 -15.963,-36.488 -15.963,-56.478 0,-19.99 5.488,-39.216 15.963,-56.477 H -0.001 c 10.477,17.262 15.964,36.488 15.964,56.477 C 15.963,-36.487 10.476,-17.261 0,0"
           style="fill:#d40000;fill-opacity:1;fill-rule:nonzero;stroke:none"
           id="path9163" />
      </g>
      <g
         id="g9165"
         transform="translate(355.2891,97.8633)"
         style="fill:#e9afaf">
        <path
           d="m 0,0 c 28.286,33.692 28.267,79.286 0,112.955 -14.692,17.506 -36.044,30.637 -60.872,36.675 -69.543,0 -110.814,-49.063 -110.814,-94.909 0,-45.708 46.961,-91.395 110.814,-91.395 C -36.044,-30.637 -14.692,-17.506 0,0"
           style="fill:#e9afaf;fill-opacity:1;fill-rule:nonzero;stroke:none"
           id="path9167" />
      </g>
      <g
         id="g9169"
         transform="translate(233.5439,97.8633)"
         style="fill:#de8787">
        <path
           d="m 0,0 c -28.285,33.692 -28.266,79.286 0,112.955 14.693,17.506 36.044,30.637 60.873,36.675 -9.817,2.387 -20.178,3.667 -30.887,3.667 -37.792,0 -71.257,-15.914 -91.759,-40.342 C -90.06,79.263 -90.04,33.669 -61.773,0 -33.329,-33.891 16.042,-47.575 60.873,-36.674 36.044,-30.637 14.693,-17.506 0,0"
           style="fill:#de8787;fill-opacity:1;fill-rule:nonzero;stroke:none"
           id="path9171" />
      </g>
      <g
         id="g9173"
         transform="translate(406.1836,26.8174)">
        <path
           d="m 0,0 c 10.784,10.733 17.912,25.212 19.238,41.457 11.846,145.237 14.335,175.745 22.34,273.872 2.173,26.601 -18.844,49.399 -45.533,49.399 h -14.77 c -23.061,0 -42.614,-17.217 -45.363,-40.282 l -1.174,-9.8 c -2.741,-22.982 -22.219,-40.282 -45.363,-40.282 h -5.673 c -77.783,0.032 -73.421,-0.072 -76.076,0.081 -21.979,1.245 -40.091,18.093 -42.731,40.201 l -1.175,9.8 c -2.706,22.756 -21.998,40.282 -45.363,40.282 h -14.769 c -26.635,0 -47.706,-22.746 -45.533,-49.399 20.554,-251.936 22.089,-270.802 22.34,-273.872 2.8,-34.338 31.486,-60.774 65.935,-60.774 h 206.973 c 5.662,0 11.175,0.713 16.435,2.068"
           style="fill:none;stroke:#000000;stroke-width:15;stroke-linecap:round;stroke-linejoin:round;stroke-miterlimit:10;stroke-dasharray:none;stroke-opacity:1"
           id="path9175" />
      </g>
      <g
         id="g9177"
         transform="translate(355.2891,210.8184)">
        <path
           d="m 0,0 c 28.286,-33.692 28.267,-79.286 0,-112.955 -20.502,-24.428 -53.967,-40.342 -91.759,-40.342 -37.792,0 -71.257,15.914 -91.76,40.342 -28.286,33.692 -28.266,79.286 0,112.955 20.503,24.428 53.968,40.342 91.76,40.342 C -53.967,40.342 -20.502,24.428 0,0 Z"
           style="fill:none;stroke:#000000;stroke-width:15;stroke-linecap:round;stroke-linejoin:round;stroke-miterlimit:10;stroke-dasharray:none;stroke-opacity:1"
           id="path9179" />
      </g>
      <g
         id="g9181"
         transform="translate(171.7705,97.8633)">
        <path
           d="M 0,0 H -87.603"
           style="fill:none;stroke:#000000;stroke-width:15;stroke-linecap:round;stroke-linejoin:round;stroke-miterlimit:10;stroke-dasharray:none;stroke-opacity:1"
           id="path9183" />
      </g>
      <g
         id="g9185"
         transform="translate(427.8311,97.8633)">
        <path
           d="M 0,0 H -72.542"
           style="fill:none;stroke:#000000;stroke-width:15;stroke-linecap:round;stroke-linejoin:round;stroke-miterlimit:10;stroke-dasharray:none;stroke-opacity:1"
           id="path9187" />
      </g>
      <g
         id="g9189"
         transform="translate(171.7705,210.8184)">
        <path
           d="M 0,0 H -96.819"
           style="fill:none;stroke:#000000;stroke-width:15;stroke-linecap:round;stroke-linejoin:round;stroke-miterlimit:10;stroke-dasharray:none;stroke-opacity:1"
           id="path9191" />
      </g>
      <g
         id="g9193"
         transform="translate(437.0479,210.8184)">
        <path
           d="M 0,0 H -81.759"
           style="fill:none;stroke:#000000;stroke-width:15;stroke-linecap:round;stroke-linejoin:round;stroke-miterlimit:10;stroke-dasharray:none;stroke-opacity:1"
           id="path9195" />
      </g>
    </g>
  </g>
</svg>
