<?xml version="1.0" encoding="UTF-8" standalone="no"?>
<svg
   version="1.1"
   id="Capa_1"
   x="0px"
   y="0px"
   viewBox="0 0 512 512"
   style="enable-background:new 0 0 512 512;"
   xml:space="preserve"
   sodipodi:docname="steak.svg"
   inkscape:version="1.1.2 (0a00cf5339, 2022-02-04)"
   inkscape:export-filename="/home/psk/Dev/WEB/kid/src/assets/apps/steak.png"
   inkscape:export-xdpi="56.25"
   inkscape:export-ydpi="56.25"
   xmlns:inkscape="http://www.inkscape.org/namespaces/inkscape"
   xmlns:sodipodi="http://sodipodi.sourceforge.net/DTD/sodipodi-0.dtd"
   xmlns="http://www.w3.org/2000/svg"
   xmlns:svg="http://www.w3.org/2000/svg"><defs
   id="defs93">
	
	
	
	
	
	
	
	
	
	
	
	
	
	

		
		
		
		
		
		
		
		
	</defs><sodipodi:namedview
   id="namedview91"
   pagecolor="#505050"
   bordercolor="#eeeeee"
   borderopacity="1"
   inkscape:pageshadow="0"
   inkscape:pageopacity="0"
   inkscape:pagecheckerboard="0"
   showgrid="false"
   inkscape:zoom="0.70214844"
   inkscape:cx="445.77469"
   inkscape:cy="345.36857"
   inkscape:window-width="1920"
   inkscape:window-height="1016"
   inkscape:window-x="0"
   inkscape:window-y="27"
   inkscape:window-maximized="1"
   inkscape:current-layer="Capa_1" />
<circle
   style="fill:#ffffff"
   cx="256"
   cy="256"
   r="248.5"
   id="circle2" /><circle
   style="fill:#f2f2f2"
   cx="256"
   cy="256"
   r="190.33299"
   id="circle4" /><circle
   style="fill:#ffcc00"
   cx="338.52301"
   cy="186.61301"
   r="59.693001"
   id="circle6" /><path
   style="fill:#d4aa00"
   d="m 338.523,126.92 c -5.181,0 -10.207,0.662 -15,1.903 25.707,6.653 44.693,30.004 44.693,57.79 0,27.786 -18.986,51.137 -44.693,57.79 4.793,1.241 9.819,1.903 15,1.903 32.968,0 59.693,-26.725 59.693,-59.693 0,-32.968 -26.725,-59.693 -59.693,-59.693 z"
   id="path8" /><path
   style="fill:#aad400;stroke:#bcd35f"
   d="m 361.658,246.298 c 0.467,4.188 0.054,8.221 -1.07,11.947 -0.351,1.163 0.628,2.286 1.835,2.144 0.892,-0.105 1.799,-0.16 2.719,-0.155 16.17,0.079 23.767,10.006 23.656,21.606 -0.014,1.504 1.085,2.822 2.566,3.079 13.459,2.333 23.697,14.061 23.697,28.187 0,22.843 -18.88,28.352 -27.693,28.611 -0.718,0.021 -1.273,0.643 -1.17,1.353 0.161,1.11 0.244,2.245 0.244,3.4 0,12.984 -10.526,23.51 -23.51,23.51 -0.2,0 -0.4,-0.003 -0.599,-0.008 -0.855,-0.023 -1.557,0.66 -1.557,1.515 v 0.016 c 0,15.197 -11.846,27.628 -26.807,28.562 -17.008,1.062 -30.965,-12.845 -30.965,-29.886 V 249.684 c 0,-16.869 13.54,-30.452 30.576,-29.657 14.427,0.673 26.476,11.916 28.078,26.271 z"
   id="path10" /><path
   style="fill:#abc837"
   d="m 391.382,284.937 c -1.48,-0.257 -2.579,-1.574 -2.564,-3.077 0.111,-11.591 -7.48,-21.51 -23.638,-21.59 -0.919,-0.004 -1.826,0.05 -2.717,0.155 -1.206,0.142 -2.184,-0.98 -1.833,-2.142 1.122,-3.723 1.536,-7.753 1.069,-11.938 -1.601,-14.344 -13.641,-25.579 -28.058,-26.252 -4.321,-0.202 -8.416,0.526 -12.122,1.995 5.546,4.749 9.351,11.499 10.203,19.128 0.467,4.185 0.054,8.215 -1.069,11.938 -0.35,1.162 0.628,2.285 1.833,2.142 0.891,-0.105 1.798,-0.159 2.717,-0.155 16.158,0.079 23.75,9.998 23.638,21.59 -0.014,1.502 1.084,2.82 2.565,3.077 13.449,2.332 23.679,14.051 23.679,28.167 0,22.826 -18.866,28.331 -27.672,28.59 -0.717,0.021 -1.272,0.643 -1.169,1.353 0.161,1.109 0.244,2.243 0.244,3.397 0,12.975 -10.518,23.493 -23.493,23.493 -0.2,0 -0.4,-0.003 -0.599,-0.008 -0.854,-0.023 -1.556,0.659 -1.556,1.514 v 0.016 c 0,11.924 -7.299,22.14 -17.672,26.433 5.515,4.91 12.849,7.737 20.862,7.237 14.951,-0.933 26.788,-13.355 26.788,-28.541 v -0.016 c 0,-0.854 0.702,-1.537 1.556,-1.514 0.199,0.005 0.399,0.008 0.599,0.008 12.975,0 23.493,-10.518 23.493,-23.493 0,-1.154 -0.083,-2.288 -0.244,-3.397 -0.103,-0.71 0.452,-1.331 1.169,-1.352 8.806,-0.259 27.672,-5.764 27.672,-28.59 -0.002,-14.118 -10.232,-25.837 -23.681,-28.168 z"
   id="path12" /><path
   style="fill:none;stroke:#b3b3b3;stroke-width:7;stroke-linecap:round;stroke-linejoin:round;stroke-miterlimit:10;stroke-dasharray:none"
   d="m 442.679,218.697 c 2.397,12.063 3.654,24.536 3.654,37.303 0,1.895 -0.028,3.783 -0.083,5.664"
   id="path22" /><path
   style="fill:none;stroke:#333333;stroke-width:10;stroke-linecap:round;stroke-linejoin:round;stroke-miterlimit:10;stroke-dasharray:none"
   d="M 425.984,74.732 C 474.31,120.068 504.5,184.509 504.5,256 504.5,393.243 393.243,504.5 256,504.5 118.757,504.5 7.5,393.243 7.5,256 7.5,118.757 118.757,7.5 256,7.5 c 53.171,0 102.441,16.699 142.852,45.139"
   id="path24" /><path
   style="fill:none;stroke:#aa8800;stroke-width:7;stroke-linecap:round;stroke-linejoin:round;stroke-miterlimit:10;stroke-dasharray:none"
   d="m 312.005,133.119 c 7.989,-3.968 16.993,-6.199 26.519,-6.199 32.967,0 59.693,26.725 59.693,59.693 0,24.716 -15.021,45.924 -36.433,54.991"
   id="path26" /><path
   style="fill:none;stroke:#b3b3b3;stroke-width:7;stroke-linecap:round;stroke-linejoin:round;stroke-miterlimit:10;stroke-dasharray:none"
   d="M 441.153,300.29 C 421.191,384.048 345.869,446.333 256,446.333 c -3.997,0 -7.965,-0.123 -11.901,-0.366"
   id="path30" /><path
   style="fill:none;stroke:#b3b3b3;stroke-width:7;stroke-linecap:round;stroke-linejoin:round;stroke-miterlimit:10;stroke-dasharray:none"
   d="m 71.526025,259.58219 c -4.51327,85.98554 50.537685,153.8262 136.745915,179.21472 3.83418,1.12919 8.1586,2.19 12.00292,3.06883"
   id="path30-2"
   sodipodi:nodetypes="csc" /><path
   style="fill:none;stroke:#b3b3b3;stroke-width:7;stroke-linecap:round;stroke-linejoin:round;stroke-miterlimit:10;stroke-dasharray:none"
   d="m 194.544,75.807 c 19.28,-6.574 39.951,-10.14 61.456,-10.14 78.388,0 145.707,47.387 174.876,115.076"
   id="path32" /><path
   style="fill:none;stroke:#89a02c;stroke-width:7;stroke-linecap:round;stroke-linejoin:round;stroke-miterlimit:10;stroke-dasharray:none"
   d="m 318.601,223.433 c 4.426,-2.359 9.55,-3.596 15.038,-3.34 14.417,0.673 26.457,11.908 28.058,26.252 0.467,4.185 0.054,8.215 -1.069,11.938 -0.35,1.162 0.628,2.285 1.833,2.142 0.891,-0.105 1.798,-0.159 2.717,-0.155 16.158,0.079 23.75,9.999 23.638,21.59 -0.014,1.502 1.084,2.82 2.565,3.077 13.449,2.331 23.679,14.051 23.679,28.167 0,22.826 -18.866,28.331 -27.672,28.59 -0.717,0.021 -1.272,0.642 -1.169,1.352 0.161,1.109 0.244,2.243 0.244,3.397 0,12.975 -10.518,23.493 -23.493,23.493 -0.2,0 -0.4,-0.003 -0.599,-0.008 -0.854,-0.023 -1.556,0.659 -1.556,1.514 v 0.016 c 0,15.186 -11.837,27.607 -26.788,28.541 -5.408,0.338 -10.507,-0.839 -14.946,-3.149"
   id="path34" />
<g
   id="g60">
</g>
<g
   id="g62">
</g>
<g
   id="g64">
</g>
<g
   id="g66">
</g>
<g
   id="g68">
</g>
<g
   id="g70">
</g>
<g
   id="g72">
</g>
<g
   id="g74">
</g>
<g
   id="g76">
</g>
<g
   id="g78">
</g>
<g
   id="g80">
</g>
<g
   id="g82">
</g>
<g
   id="g84">
</g>
<g
   id="g86">
</g>
<g
   id="g88">
</g>
<path
   style="fill:none;stroke:#000000;stroke-width:14.1468;stroke-linecap:round;stroke-linejoin:round;stroke-miterlimit:10"
   d="M 118.75638,348.31868 C 99.879823,316.42137 90.681796,278.41855 94.749462,238.71743 97.956417,207.417 109.0243,178.82188 125.79228,154.69212"
   id="path28" /><path
   d="m 252.83357,349.45139 -5.42632,4.81628 a 18.527128,18.527128 0 0 1 -17.00335,4.05731 v 0 a 18.512845,18.512845 0 0 1 -7.51066,-3.9979 l -4.71634,-4.13968 -44.84013,-16.71096 -1.63525,2.47488 a 16.789169,16.789169 0 0 1 -18.29845,7.05485 v 0 a 16.784408,16.784408 0 0 1 -10.2265,-7.76921 l -3.28586,-5.62957 -39.26176,-0.47457 -17.685751,7.19624 a 14.12271,14.12271 0 0 1 -8.925329,0.57814 v 0 A 14.141756,14.141756 0 0 1 63.580638,324.97654 l -1.976153,-15.94916 17.921545,-49.44519 194.62359,46.23969 z"
   style="fill:#be624b;stroke-width:4.76154"
   id="path2" /><path
   d="m 142.22619,348.12252 -19.0948,-160.7736 18.15885,-69.07606 a 9.5230682,9.5230682 0 0 0 -6.78899,-11.63132 l -18.42028,-4.84236 a 9.5230682,9.5230682 0 0 0 -11.63132,6.78897 l -20.580024,78.2862 13.127539,156.07369 z"
   style="fill:#f9cd80;stroke-width:4.76154"
   id="path4" /><path
   d="m 220.51241,368.70254 -19.0948,-160.77359 18.15883,-69.07607 a 9.5230682,9.5230682 0 0 0 -6.78896,-11.63132 l -18.42029,-4.84236 a 9.5230682,9.5230682 0 0 0 -11.63131,6.78896 l -20.58002,78.2862 13.12752,156.0737 z"
   style="fill:#f9cd80;stroke-width:4.76154"
   id="path6" /><path
   d="m 298.79862,389.28256 -19.09481,-160.7736 18.15883,-69.07607 a 9.5230682,9.5230682 0 0 0 -6.78896,-11.63132 l -18.42029,-4.84236 a 9.5230682,9.5230682 0 0 0 -11.63131,6.78897 l -20.58001,78.2862 13.12751,156.07369 z"
   style="fill:#f9cd80;stroke-width:4.76154"
   id="path8-1" /><rect
   x="-390.50967"
   y="297.49487"
   width="47.615337"
   height="19.046137"
   rx="9.5230684"
   style="fill:#73412d;stroke-width:4.76154"
   id="rect10"
   transform="matrix(-0.96714024,-0.25424351,-0.25424351,0.96714024,0,0)" /><rect
   x="-309.5636"
   y="297.49487"
   width="47.615337"
   height="19.046137"
   rx="9.5230684"
   style="fill:#73412d;stroke-width:4.76154"
   id="rect12"
   transform="matrix(-0.96714024,-0.25424351,-0.25424351,0.96714024,0,0)" /><rect
   x="-228.61746"
   y="297.49487"
   width="47.615337"
   height="19.046137"
   rx="9.5230684"
   style="fill:#73412d;stroke-width:4.76154"
   id="rect14"
   transform="matrix(-0.96714024,-0.25424351,-0.25424351,0.96714024,0,0)" /><path
   d="m 274.70999,168.11642 v 0 a 55.676616,55.676616 0 0 0 -25.5796,-0.64412 l -7.97646,1.66947 -9.21014,-2.42118 a 45.082204,45.082204 0 0 0 -18.2965,-9.73313 l -5.33268,-1.40186 a 56.709868,56.709868 0 0 0 -32.84227,1.21299 l -18.42028,-4.84236 A 32.50223,32.50223 0 0 0 137.23993,136.90137 L 113.4225,130.6402 a 45.958325,45.958325 0 0 0 -43.469754,34.26094 l -8.135166,30.94608 -6.567545,109.93423 a 13.741786,13.741786 0 0 0 10.223783,14.10973 v 0 a 13.746549,13.746549 0 0 0 13.092373,-3.45089 l 8.828482,-8.61876 a 33.997352,33.997352 0 0 1 12.701777,-7.82701 v 0 a 31.464215,31.464215 0 0 1 18.21674,-0.67601 v 0 a 58.771612,58.771612 0 0 1 17.19469,7.6317 l 17.22472,11.26315 6.39649,-1.85835 a 76.184542,76.184542 0 0 1 40.67491,-0.53737 v 0 a 50.976983,50.976983 0 0 1 26.97849,17.62803 l 4.23631,5.3477 23.06608,-7.92347 a 32.854584,32.854584 0 0 1 19.02669,-0.70436 v 0 a 32.887914,32.887914 0 0 1 15.15799,8.82438 l 10.85798,11.13538 a 11.189604,11.189604 0 0 0 5.1758,3.00993 v 0 a 11.184843,11.184843 0 0 0 13.661,-7.97365 v 0 a 63.842645,63.842645 0 0 0 -0.29199,-33.55529 l -11.18939,-39.70875 a 129.53754,129.53754 0 0 1 -0.60142,-68.05552 v 0 a 21.798302,21.798302 0 0 0 -5.4809,-20.76484 v 0 a 55.681377,55.681377 0 0 0 -25.69065,-14.96076 z"
   style="fill:#723624;stroke-width:4.76154"
   id="path16-2" /><path
   d="m 152.7326,318.21336 -17.22472,-11.26315 a 58.771612,58.771612 0 0 0 -17.19469,-7.6317 31.464215,31.464215 0 0 0 -18.21553,0.67141 33.997352,33.997352 0 0 0 -12.701776,7.82702 l -8.829693,8.62335 A 13.741786,13.741786 0 0 1 55.248824,305.78606 L 61.81758,195.84722 69.952746,164.90114 A 45.958325,45.958325 0 0 1 113.4225,130.6402 l 23.81743,6.26117 a 32.50223,32.50223 0 0 1 19.81213,15.05486 324.29856,324.29856 0 0 0 -9.2981,112.15565 z"
   style="fill:#73412d;stroke-width:4.76154"
   id="path18" /><path
   d="m 174.83835,265.71776 7.46246,-1.56827 a 8.8993067,8.8993067 0 0 0 4.82757,-14.61845 v 0 a 5.7519329,5.7519329 0 0 1 5.76904,-9.37871 v 0 a 10.808682,10.808682 0 0 0 13.55632,-10.68437 l -0.39841,-18.72961 a 101.93968,101.93968 0 0 1 13.0142,-51.92177 44.991733,44.991733 0 0 1 12.87428,7.90402 l 9.21014,2.42117 6.13778,-1.28631 -12.83081,169.75529 -3.44212,1.18262 -4.23631,-5.34769 a 50.976983,50.976983 0 0 0 -26.97849,-17.62804 75.922657,75.922657 0 0 0 -10.76403,-1.99762 37.297094,37.297094 0 0 0 -15.47879,-41.33363 3.7187579,3.7187579 0 0 1 1.27721,-6.76859 z"
   style="fill:#89513d;stroke-width:4.76154"
   id="path20-8" /><path
   d="m 241.15393,169.14177 7.97646,-1.66947 a 55.671853,55.671853 0 0 1 51.27025,15.60488 v 0 a 21.798302,21.798302 0 0 1 5.4809,20.76484 129.53754,129.53754 0 0 0 0.599,68.06472 l 11.18938,39.70878 a 63.842645,63.842645 0 0 1 0.29442,33.54606 11.184843,11.184843 0 0 1 -18.82298,4.96735 l -10.85798,-11.13537 a 32.887914,32.887914 0 0 0 -15.17181,-8.82802 v 0 a 32.854584,32.854584 0 0 0 -19.02669,0.70436 l -23.06608,7.92347 -2.44612,-47.96591 a 398.70228,398.70228 0 0 1 12.58125,-121.68569 z"
   style="fill:#73412d;stroke-width:4.76154"
   id="path22-9" /><path
   d="m 300.40064,183.07718 a 21.798302,21.798302 0 0 1 5.4809,20.76484 129.53754,129.53754 0 0 0 0.599,68.06472 l 11.18938,39.70878 a 63.842645,63.842645 0 0 1 0.29442,33.54606 11.17532,11.17532 0 0 1 -13.48141,8.02086 l -0.31235,-1.77081 a 142.14131,142.14131 0 0 0 -33.63029,-69.56 3.4425888,3.4425888 0 0 1 3.44485,-5.61287 11.465773,11.465773 0 0 0 14.27318,-12.66217 159.12569,159.12569 0 0 1 10.39985,-82.05537 c 0.56411,0.53231 1.19145,0.99263 1.73786,1.55475 z"
   style="fill:#89513d;stroke-width:4.76154"
   id="path24-3" /><path
   d="m 109.76141,298.32583 v 0 l 1.6613,-18.006 a 16.403484,16.403484 0 0 0 -15.365107,-17.86878 16.408245,16.408245 0 0 1 -11.878739,-6.185 7.5756003,7.5756003 0 0 1 6.225624,-12.2767 21.426904,21.426904 0 0 0 21.779412,-25.78378 30.335733,30.335733 0 0 1 6.90036,-26.2489 16.779645,16.779645 0 0 0 -1.53393,-23.68066 20.617442,20.617442 0 0 1 6.50529,-34.84056 l 13.18431,3.46592 a 32.50223,32.50223 0 0 1 19.81213,15.05486 324.29856,324.29856 0 0 0 -9.2981,112.15565 l 4.97864,54.10148 -17.22472,-11.26315 a 58.771612,58.771612 0 0 0 -17.19469,-7.6317 29.788157,29.788157 0 0 0 -4.26714,-0.79184 32.054646,32.054646 0 0 0 -4.28467,-0.20076 z"
   style="fill:#89513d;stroke-width:4.76154"
   id="path26-6" /></svg>
